public void Main()
		{

            var fromAddress = new MailAddress("tuseefahmad1995@gmail.com", "Test-SSIS Package Notification");
            var toAddress = new MailAddress("wstuseef1995@gmail.com", "");

            const string fromPassword = "Saifee965";

            var smtp = new SmtpClient
            {
                Host = "smtp.gmail.com",
                Port = 587,
                EnableSsl = true,
                DeliveryMethod = SmtpDeliveryMethod.Network,
                UseDefaultCredentials = false,
                Credentials = new NetworkCredential(fromAddress.Address, fromPassword),
                Timeout = 20000
            };

            MailMessage mailmsg = new MailMessage();
            mailmsg.IsBodyHtml = true;
            mailmsg.Subject = "Test-SSIS File Loaded Successfully";
            mailmsg.Body = "This is to notify you that Test-SSIS File Loaded Successfully.";
            mailmsg.From = new MailAddress(fromAddress.ToString());
            mailmsg.To.Add(toAddress);

            {
                smtp.Send(mailmsg);
            }

			Dts.TaskResult = (int)ScriptResults.Success;
		}